[gd_scene load_steps=2 format=3 uid="uid://nviggygtc1mw"]

[ext_resource type="Script" path="res://Scripts/Concepts (Scripts)/_Curve2D.gd" id="1_do8ox"]

[node name="_Curve 2D" type="Node" node_paths=PackedStringArray("pointsParent", "centersParent")]
script = ExtResource("1_do8ox")
fillColor = Color(1, 1, 1, 1)
pointsParent = NodePath("Points Parent")
centersParent = NodePath("Centers Parent")

[node name="Points Parent" type="Node" parent="."]

[node name="Centers Parent" type="Node" parent="."]
