[gd_scene load_steps=2 format=3 uid="uid://ng2aie60xl57"]

[ext_resource type="Script" path="res://Scripts/Concepts (Scripts)/UIItem.gd" id="1_ccsbr"]

[node name="UI Item" type="Control"]
layout_mode = 3
anchors_preset = 0
script = ExtResource("1_ccsbr")
