[gd_scene load_steps=3 format=3 uid="uid://c7e8d0vrl8ucd"]

[ext_resource type="PackedScene" uid="uid://s4ewwan3kh7q" path="res://Scenes/Objects (Scenes)/Item.tscn" id="1_2an6d"]
[ext_resource type="Script" path="res://Scripts/Objects (Scripts)/Items (Scripts)/AddToHpItem.gd" id="2_j7lda"]

[node name="Add To Hp Item" instance=ExtResource("1_2an6d")]
script = ExtResource("2_j7lda")
amount = 0.0

[node name="CollisionShape2D" parent="StaticBody2D" index="0"]
scale = Vector2(0.07, 0.07)

[node name="Sprite2D" parent="StaticBody2D" index="1"]
scale = Vector2(0.07, 0.07)

[node name="Control" parent="." index="1"]
visible = false
