[gd_resource type="VisualShader" load_steps=2 format=3 uid="uid://cgg5ncy3oxmir"]

[sub_resource type="VisualShaderNodeVec3Constant" id="VisualShaderNodeVec3Constant_313jk"]
constant = Vector3(1, 0, 0)

[resource]
code = "shader_type canvas_item;
render_mode blend_mix;




void fragment() {
// Vector3Constant:2
	vec3 n_out2p0 = vec3(1.000000, 0.000000, 0.000000);


// Output:0
	COLOR.rgb = n_out2p0;


}
"
mode = 1
flags/light_only = false
nodes/fragment/0/position = Vector2(-400, -1360)
nodes/fragment/2/node = SubResource("VisualShaderNodeVec3Constant_313jk")
nodes/fragment/2/position = Vector2(-820, -1380)
nodes/fragment/connections = PackedInt32Array(2, 0, 0, 0)
